<svg xmlns="http://www.w3.org/2000/svg" width="18.383" height="21.098" viewBox="0 0 18.383 21.098">
  <g id="notification" transform="translate(-25.402 -22.902)">
    <g id="Group_282" data-name="Group 282" transform="translate(25.402 22.902)">
      <path id="Path_56" data-name="Path 56" d="M36.672,42.12H32.514a2.089,2.089,0,0,0,4.157,0Zm-3.936-16.45a6.686,6.686,0,0,0-4.827,6.423v5.013a1.672,1.672,0,0,1-1.67,1.672.836.836,0,1,0,0,1.671h16.7a.836.836,0,1,0,0-1.671,1.669,1.669,0,0,1-1.67-1.672V32.093A6.687,6.687,0,0,0,36.45,25.67l-.6-.174V24.153a1.253,1.253,0,0,0-2.507,0V25.5Z" transform="translate(-25.402 -22.902)" fill="#3e3e3e"/>
    </g>
  </g>
</svg>
