<?xml version="1.0" encoding="UTF-8" standalone="no"?>
<svg
   xmlns:dc="http://purl.org/dc/elements/1.1/"
   xmlns:cc="http://creativecommons.org/ns#"
   xmlns:rdf="http://www.w3.org/1999/02/22-rdf-syntax-ns#"
   xmlns:svg="http://www.w3.org/2000/svg"
   xmlns="http://www.w3.org/2000/svg"
   xmlns:sodipodi="http://sodipodi.sourceforge.net/DTD/sodipodi-0.dtd"
   xmlns:inkscape="http://www.inkscape.org/namespaces/inkscape"
   height="1000"
   viewBox="0 0 750.00209 749.99998"
   width="1000"
   version="1.1"
   id="svg25576"
   sodipodi:docname="sold.svg"
   inkscape:version="0.92.4 (5da689c313, 2019-01-14)"
   inkscape:export-filename="Z:\AYTINAZ\Design\yat-icons\sold.png"
   inkscape:export-xdpi="96"
   inkscape:export-ydpi="96">
  <metadata
     id="metadata25582">
    <rdf:RDF>
      <cc:Work
         rdf:about="">
        <dc:format>image/svg+xml</dc:format>
        <dc:type
           rdf:resource="http://purl.org/dc/dcmitype/StillImage" />
        <dc:title></dc:title>
      </cc:Work>
    </rdf:RDF>
  </metadata>
  <defs
     id="defs25580" />
  <sodipodi:namedview
     pagecolor="#ffffff"
     bordercolor="#666666"
     borderopacity="1"
     objecttolerance="10"
     gridtolerance="10"
     guidetolerance="10"
     inkscape:pageopacity="0"
     inkscape:pageshadow="2"
     inkscape:window-width="1822"
     inkscape:window-height="1051"
     id="namedview25578"
     showgrid="false"
     units="px"
     inkscape:zoom="0.69"
     inkscape:cx="659.61678"
     inkscape:cy="510.16903"
     inkscape:window-x="-9"
     inkscape:window-y="-9"
     inkscape:window-maximized="1"
     inkscape:current-layer="g28743" />
  <g
     transform="matrix(1.5679459,0,0,1.5679459,-34.748155,-26.369109)"
     id="g28743"
     style="display:inline;stroke-width:0.47833413">
    <path
       inkscape:connector-curvature="0"
       style="fill:#8800aa;stroke-width:0.63777882"
       d="M 294.17766,487.70976 H 93.170636 c -17.077736,0 -30.924143,-13.84638 -30.924143,-30.92413 V 54.771632 c 0,-17.077741 13.846407,-30.924146 30.924143,-30.924146 H 294.17766 c 17.07773,0 30.92416,13.846405 30.92416,30.924146 V 456.78563 c 0,17.07775 -13.84643,30.92413 -30.92416,30.92413 z m 0,0"
       id="path34998" />
    <path
       inkscape:connector-curvature="0"
       style="fill:#ddafe9;stroke-width:0.63777882"
       d="m 294.17766,39.309558 h -24.52191 c -4.09954,0 -8.03302,1.630765 -10.93215,4.529912 l -6.40227,6.402252 c -2.89913,2.899155 -6.8326,4.52991 -10.93215,4.52991 h -95.43004 c -4.09955,0 -8.03302,-1.630755 -10.93215,-4.52991 l -6.40226,-6.402252 c -2.89916,-2.899147 -6.83263,-4.529912 -10.93216,-4.529912 H 93.170636 c -8.542654,0 -15.462074,6.919439 -15.462074,15.462074 V 394.93731 c 0,8.54266 6.91942,15.46209 15.462074,15.46209 H 294.17766 c 8.54264,0 15.46209,-6.91943 15.46209,-15.46209 V 54.771632 c 0,-8.542635 -6.91945,-15.462074 -15.46209,-15.462074 z m 0,0"
       id="path35000" />
    <path
       inkscape:connector-curvature="0"
       style="fill:#aa00d4;stroke-width:0.63777882"
       d="m 216.8673,449.05461 c 0,12.80829 -10.38483,23.1931 -23.19314,23.1931 -12.80829,0 -23.19313,-10.38481 -23.19313,-23.1931 0,-12.80832 10.38484,-23.19316 23.19313,-23.19316 12.80831,0 23.19314,10.38484 23.19314,23.19316 z m 0,0"
       id="path35002" />
    <path
       inkscape:connector-curvature="0"
       style="fill:#bc5fd3;stroke-width:0.63777882"
       d="M 251.61677,203.39851 H 137.29115 c -25.25435,0 -45.730252,-11.35503 -45.730252,-25.35999 v -63.39999 c 0,-14.00496 20.475902,-25.359988 45.730252,-25.359988 h 114.32562 c 25.25433,0 45.73023,11.355028 45.73023,25.359988 v 63.39999 c 0,14.00496 -20.4759,25.35999 -45.73023,25.35999 z m 0,0"
       id="path35004" />
    <path
       inkscape:connector-curvature="0"
       style="fill:#edeff1;stroke-width:0.63777882"
       d="M 251.61677,193.15828 H 137.29115 c -25.25435,0 -45.730252,-11.35504 -45.730252,-25.35999 V 104.3983 c 0,-14.004957 20.475902,-25.359987 45.730252,-25.359987 h 114.32562 c 25.25433,0 45.73023,11.35503 45.73023,25.359987 v 63.39999 c 0,14.00495 -20.4759,25.35999 -45.73023,25.35999 z m 0,0"
       id="path35006" />
    <path
       inkscape:connector-curvature="0"
       style="display:inline;fill:#8080ff;stroke-width:0.63777882"
       d="M 255.83443,243.49911 H 141.5088 c -25.25434,0 -45.730248,-2.03973 -45.730248,-4.55549 v -11.38874 c 0,-2.51575 20.475908,-4.55549 45.730248,-4.55549 h 114.32563 c 25.25433,0 45.73023,2.03974 45.73023,4.55549 v 11.38874 c 0,2.51576 -20.4759,4.55549 -45.73023,4.55549 z m 0,0"
       id="path35004-2" />
    <path
       inkscape:connector-curvature="0"
       style="display:inline;fill:#8080ff;stroke-width:0.63777882"
       d="M 254.42854,299.07545 H 140.10292 c -25.25435,0 -45.730254,-2.03974 -45.730254,-4.5555 v -11.38874 c 0,-2.51575 20.475904,-4.55549 45.730254,-4.55549 h 114.32562 c 25.25433,0 45.73023,2.03974 45.73023,4.55549 v 11.38874 c 0,2.51576 -20.4759,4.5555 -45.73023,4.5555 z m 0,0"
       id="path35004-2-3-4" />
    <path
       inkscape:connector-curvature="0"
       style="display:inline;fill:#8080ff;stroke-width:0.63777882"
       d="M 253.02265,355.43156 H 138.69703 c -25.25434,0 -45.730247,-2.03974 -45.730247,-4.5555 v -11.38874 c 0,-2.51575 20.475907,-4.55549 45.730247,-4.55549 h 114.32562 c 25.25433,0 45.73024,2.03974 45.73024,4.55549 v 11.38874 c 0,2.51576 -20.47591,4.5555 -45.73024,4.5555 z m 0,0"
       id="path35004-2-3-5" />
    <g
       id="g1600"
       transform="matrix(0.96486066,0,0,0.96486066,-129.55908,-152.37562)"
       style="stroke-width:0.49575463">
      <path
         id="path2"
         d="m 633.05406,583.74095 c 0.2473,-17.47307 -11.22363,-34.96431 -34.3817,-48.17399 -45.45945,-25.9305 -118.70102,-25.54783 -163.59316,0.85526 -22.37408,13.15897 -33.47908,30.29721 -33.3662,47.39048 -4.8e-4,-0.0555 -0.003,-0.1105 -0.004,-0.1655 l 0.0311,12.97625 c 0.0411,17.25829 11.52259,34.48311 34.39845,47.53158 45.45465,25.92763 118.69622,25.54496 163.58788,-0.85765 22.30233,-13.11688 33.41117,-30.18815 33.37051,-47.22593 l -0.0311,-12.97625 c 0,0.21477 -0.009,0.4305 -0.012,0.64575 z"
         style="fill:#ddb201;stroke-width:0.23713635"
         inkscape:connector-curvature="0" />
      <path
         id="path4"
         d="m 590.69422,540.25942 c 40.99467,23.38384 41.40987,61.64675 0.92701,85.45631 -40.48285,23.80956 -106.54176,24.15444 -147.53643,0.7706 -40.99946,-23.3872 -41.40987,-61.64675 -0.92701,-85.45632 40.48285,-23.80956 106.53697,-24.15779 147.53643,-0.77059 z m -139.15506,81.84297 c 36.82551,21.00557 96.16813,20.69561 132.53396,-0.69215 36.36583,-21.38775 35.99225,-55.76037 -0.83278,-76.76641 -36.8303,-21.00844 -96.16813,-20.69561 -132.53396,0.69215 -36.36583,21.38775 -35.998,55.7575 0.83278,76.76641"
         style="fill:#eebf00;stroke-width:0.23713635"
         inkscape:connector-curvature="0" />
      <g
         id="g10"
         transform="matrix(0.47833416,0,0,0.47833416,401.28346,426.66031)"
         style="stroke-width:0.49575463">
        <path
           inkscape:connector-curvature="0"
           id="path6"
           d="m 412.658,227.679 c 95.027,54.204 95.989,142.894 2.139,198.091 -93.851,55.197 -246.969,55.997 -341.995,1.793 -95.037,-54.21 -96,-142.899 -2.149,-198.096 93.85,-55.198 246.968,-55.998 342.005,-1.788 z M 89.479,417.754 c 85.703,48.886 223.806,48.164 308.439,-1.611 C 482.551,366.367 481.683,286.375 395.98,237.489 310.267,188.598 172.175,189.324 87.541,239.1 2.91,288.876 3.766,368.862 89.479,417.754"
           style="fill:#fece00;stroke-width:0.49575463" />
        <path
           inkscape:connector-curvature="0"
           id="path8"
           d="m 380.395,246.654 c 76.987,43.914 77.767,115.772 1.741,160.487 -76.025,44.713 -200.087,45.363 -277.074,1.447 -76.997,-43.92 -77.766,-115.773 -1.741,-160.487 76.027,-44.713 200.078,-45.367 277.074,-1.447 z"
           style="fill:#fece00;stroke-width:0.49575463" />
      </g>
      <path
         id="path12"
         d="m 632.96891,567.44602 c 0.2473,-17.47307 -11.22363,-34.96432 -34.3817,-48.17399 -45.45944,-25.9305 -118.70101,-25.54783 -163.59315,0.85526 -22.37408,13.15897 -33.47909,30.29721 -33.3662,47.39048 -4.8e-4,-0.0555 -0.003,-0.1105 -0.004,-0.16551 l 0.0311,12.97625 c 0.0411,17.2583 11.52259,34.48311 34.39844,47.53159 45.45466,25.92763 118.69623,25.54496 163.5879,-0.85765 22.30233,-13.11688 33.41115,-30.18815 33.37049,-47.22593 l -0.0311,-12.97625 c 0,0.21477 -0.009,0.4305 -0.012,0.64575 z"
         style="fill:#ddb201;stroke-width:0.23713635"
         inkscape:connector-curvature="0" />
      <path
         id="path14"
         d="m 590.60955,523.96449 c 40.99468,23.38384 41.40987,61.64675 0.92702,85.45631 -40.48286,23.80956 -106.54176,24.15492 -147.53644,0.77059 -40.99993,-23.38719 -41.40986,-61.64675 -0.92701,-85.45631 40.4819,-23.80956 106.5365,-24.15779 147.53643,-0.77059 z m -139.15553,81.84297 c 36.82551,21.00557 96.16812,20.69561 132.53395,-0.69215 36.36536,-21.38823 35.99226,-55.76037 -0.83278,-76.76641 -36.83029,-21.00844 -96.16812,-20.69561 -132.53395,0.69215 -36.36584,21.38775 -35.99752,55.7575 0.83278,76.76641"
         style="fill:#eebf00;stroke-width:0.23713635"
         inkscape:connector-curvature="0" />
      <g
         id="g20"
         transform="matrix(0.47833416,0,0,0.47833416,401.28346,426.66031)"
         style="stroke-width:0.49575463">
        <path
           inkscape:connector-curvature="0"
           id="path16"
           d="m 412.48,193.613 c 95.027,54.204 95.989,142.894 2.139,198.091 -93.851,55.197 -246.969,55.997 -341.995,1.793 -95.037,-54.21 -96,-142.899 -2.149,-198.096 93.851,-55.198 246.968,-55.998 342.005,-1.788 z M 89.302,383.688 c 85.703,48.886 223.806,48.165 308.439,-1.611 84.633,-49.776 83.765,-129.768 -1.938,-178.654 C 310.09,154.532 171.998,155.258 87.364,205.034 2.731,254.81 3.588,334.796 89.302,383.688"
           style="fill:#fece00;stroke-width:0.49575463" />
        <path
           inkscape:connector-curvature="0"
           id="path18"
           d="m 380.218,212.588 c 76.987,43.914 77.767,115.772 1.741,160.487 -76.025,44.713 -200.087,45.363 -277.074,1.447 -76.997,-43.92 -77.766,-115.773 -1.741,-160.487 76.027,-44.713 200.076,-45.367 277.074,-1.447 z"
           style="fill:#fece00;stroke-width:0.49575463" />
      </g>
      <path
         id="path22"
         d="m 632.88234,550.90666 c 0.24729,-17.47307 -11.22364,-34.96432 -34.38171,-48.17399 -45.45944,-25.9305 -118.70101,-25.54783 -163.59315,0.85526 -22.37408,13.15897 -33.47909,30.29721 -33.3662,47.39048 -4.8e-4,-0.055 -0.003,-0.1105 -0.004,-0.16551 l 0.0311,12.97625 c 0.0411,17.2583 11.52259,34.48311 34.39845,47.53159 45.45465,25.92763 118.69622,25.54496 163.58788,-0.85765 22.30233,-13.11688 33.41116,-30.18815 33.37051,-47.22593 l -0.0311,-12.97625 c 4.8e-4,0.21429 -0.009,0.43002 -0.012,0.64575 z"
         style="fill:#ddb201;stroke-width:0.23713635"
         inkscape:connector-curvature="0" />
      <path
         id="path24"
         d="m 590.52298,507.42465 c 40.99467,23.38384 41.40986,61.64675 0.92701,85.45631 -40.48286,23.80956 -106.54176,24.15492 -147.53643,0.7706 -40.99946,-23.3872 -41.40987,-61.64675 -0.92702,-85.45632 40.48286,-23.80956 106.5365,-24.15779 147.53644,-0.77059 z m -139.15506,81.84297 c 36.82551,21.00557 96.16812,20.69561 132.53395,-0.69215 36.36584,-21.38775 35.99226,-55.76037 -0.83278,-76.76641 -36.83029,-21.00844 -96.16812,-20.69561 -132.53395,0.69215 -36.36536,21.38775 -35.998,55.75798 0.83278,76.76641"
         style="fill:#eebf00;stroke-width:0.23713635"
         inkscape:connector-curvature="0" />
      <g
         id="g30"
         transform="matrix(0.47833416,0,0,0.47833416,401.28346,426.66031)"
         style="stroke-width:0.49575463">
        <path
           inkscape:connector-curvature="0"
           id="path26"
           d="m 412.3,159.035 c 95.027,54.204 95.989,142.894 2.139,198.091 -93.851,55.197 -246.969,55.997 -341.995,1.793 -95.037,-54.21 -96,-142.899 -2.149,-198.096 93.85,-55.198 246.968,-55.998 342.005,-1.788 z M 89.121,349.11 c 85.703,48.886 223.806,48.164 308.439,-1.611 84.633,-49.776 83.765,-129.768 -1.938,-178.654 C 309.909,119.954 171.817,120.68 87.183,170.456 2.55,220.232 3.408,300.219 89.121,349.11"
           style="fill:#fece00;stroke-width:0.49575463" />
        <path
           inkscape:connector-curvature="0"
           id="path28"
           d="m 380.037,178.01 c 76.987,43.914 77.767,115.772 1.741,160.487 C 305.753,383.21 181.691,383.86 104.704,339.944 27.707,296.024 26.938,224.171 102.963,179.457 178.99,134.744 303.04,134.09 380.037,178.01 Z"
           style="fill:#fece00;stroke-width:0.49575463" />
      </g>
      <path
         id="path32"
         d="m 632.80102,535.27948 c 0.2473,-17.47307 -11.22363,-34.96431 -34.3817,-48.17399 -45.45945,-25.9305 -118.70102,-25.54783 -163.59316,0.85526 -22.37408,13.15897 -33.47908,30.29721 -33.3662,47.39048 -4.7e-4,-0.0555 -0.003,-0.11049 -0.004,-0.1655 l 0.0311,12.97625 c 0.0411,17.25829 11.5226,34.48311 34.39845,47.53158 45.45465,25.92763 118.69622,25.54496 163.58788,-0.85765 22.30234,-13.11688 33.41117,-30.18815 33.37051,-47.22593 l -0.0311,-12.97625 c 0,0.21525 -0.009,0.4305 -0.012,0.64575 z"
         style="fill:#ddb201;stroke-width:0.23713635"
         inkscape:connector-curvature="0" />
      <path
         id="path34"
         d="m 590.44166,491.79747 c 40.99467,23.38384 41.40987,61.64675 0.92701,85.45631 -40.48285,23.80956 -106.54176,24.15492 -147.53643,0.7706 -41.00041,-23.38624 -41.41035,-61.64675 -0.92749,-85.45631 40.48285,-23.80957 106.5365,-24.15732 147.53691,-0.7706 z m -139.15554,81.84298 c 36.82551,21.00556 96.16813,20.6956 132.53396,-0.69215 36.36583,-21.38776 35.99225,-55.76038 -0.83278,-76.76642 -36.8303,-21.00844 -96.16813,-20.69561 -132.53396,0.69215 -36.36583,21.38823 -35.99752,55.75798 0.83278,76.76642"
         style="fill:#eebf00;stroke-width:0.23713635"
         inkscape:connector-curvature="0" />
      <g
         id="g40"
         transform="matrix(0.47833416,0,0,0.47833416,401.28346,426.66031)"
         style="stroke-width:0.49575463">
        <path
           inkscape:connector-curvature="0"
           id="path36"
           d="m 412.13,126.366 c 95.027,54.204 95.989,142.894 2.139,198.091 -93.851,55.197 -246.969,55.997 -341.995,1.793 -95.037,-54.21 -96,-142.899 -2.149,-198.096 93.849,-55.199 246.967,-55.999 342.005,-1.788 z M 88.951,316.44 c 85.703,48.886 223.806,48.164 308.439,-1.611 84.633,-49.776 83.765,-129.768 -1.938,-178.654 C 309.739,87.284 171.647,88.01 87.013,137.786 2.38,187.562 3.237,267.549 88.951,316.44"
           style="fill:#fece00;stroke-width:0.49575463" />
        <path
           inkscape:connector-curvature="0"
           id="path38"
           d="m 379.867,145.34 c 76.987,43.914 77.767,115.772 1.741,160.487 -76.025,44.713 -200.087,45.363 -277.074,1.447 -76.997,-43.92 -77.766,-115.773 -1.741,-160.487 76.025,-44.714 200.077,-45.366 277.074,-1.447 z"
           style="fill:#fece00;stroke-width:0.49575463" />
      </g>
      <path
         id="path42"
         d="m 646.1475,528.72248 c 0.2473,-17.47307 -11.22363,-34.96432 -34.3817,-48.174 -45.45945,-25.93049 -118.70102,-25.54782 -163.59316,0.85527 -22.37408,13.15897 -33.47908,30.2972 -33.3662,47.39048 -4.7e-4,-0.055 -0.003,-0.1105 -0.004,-0.16551 l 0.0311,12.97625 c 0.0411,17.2583 11.5226,34.48311 34.39797,47.53159 45.45465,25.92762 118.69623,25.54496 163.58789,-0.85765 22.30233,-13.11688 33.41116,-30.18767 33.3705,-47.22594 l -0.0311,-12.97625 c 4.7e-4,0.21478 -0.009,0.43051 -0.0115,0.64576 z"
         style="fill:#ddb201;stroke-width:0.23713635"
         inkscape:connector-curvature="0" />
      <path
         id="path44"
         d="m 603.78814,485.24046 c 40.99467,23.38385 41.40987,61.64676 0.92701,85.45632 -40.48285,23.80956 -106.54176,24.15492 -147.53643,0.77059 -40.99946,-23.38671 -41.40987,-61.64675 -0.92701,-85.45631 40.48285,-23.80956 106.53697,-24.15731 147.53643,-0.7706 z m -139.15506,81.84298 c 36.82551,21.00557 96.16812,20.69561 132.53396,-0.69215 36.36583,-21.38775 35.99225,-55.76037 -0.83278,-76.76642 -36.8303,-21.00843 -96.16813,-20.6956 -132.53396,0.69215 -36.36583,21.38776 -35.998,55.75798 0.83278,76.76642"
         style="fill:#eebf00;stroke-width:0.23713635"
         inkscape:connector-curvature="0" />
      <g
         id="g50"
         transform="matrix(0.47833416,0,0,0.47833416,401.28346,426.66031)"
         style="stroke-width:0.49575463">
        <path
           inkscape:connector-curvature="0"
           id="path46"
           d="m 440.032,112.658 c 95.027,54.204 95.989,142.894 2.139,198.091 -93.85,55.197 -246.969,55.997 -341.995,1.793 C 5.139,258.332 4.177,169.643 98.027,114.445 191.877,59.247 344.995,58.448 440.032,112.658 Z M 116.853,302.732 c 85.703,48.886 223.806,48.163 308.439,-1.611 84.633,-49.776 83.765,-129.768 -1.938,-178.654 -85.713,-48.891 -223.805,-48.165 -308.439,1.611 -84.633,49.776 -83.775,129.763 1.938,178.654"
           style="fill:#fece00;stroke-width:0.49575463" />
        <path
           inkscape:connector-curvature="0"
           id="path48"
           d="m 407.77,131.632 c 76.987,43.914 77.767,115.772 1.741,160.487 -76.025,44.713 -200.087,45.363 -277.074,1.447 C 55.44,249.646 54.671,177.793 130.696,133.079 206.722,88.367 330.772,87.713 407.77,131.632 Z"
           style="fill:#fece00;stroke-width:0.49575463" />
      </g>
      <path
         id="path52"
         d="m 632.62834,502.24859 c 0.2473,-17.47307 -11.22363,-34.96431 -34.3817,-48.17399 -45.45992,-25.93049 -118.70149,-25.54735 -163.59316,0.85526 -22.3736,13.15898 -33.47908,30.29721 -33.3662,47.39 -4.7e-4,-0.055 -0.004,-0.11001 -0.004,-0.1655 l 0.0311,12.97625 c 0.0411,17.2583 11.5226,34.48311 34.39845,47.53159 45.45466,25.92762 118.69624,25.54496 163.5879,-0.85765 22.30233,-13.11688 33.41116,-30.18815 33.3705,-47.22594 l -0.0311,-12.97625 c 4.9e-4,0.21573 -0.009,0.43098 -0.012,0.64623 z"
         style="fill:#ddb201;stroke-width:0.23713635"
         inkscape:connector-curvature="0" />
      <path
         id="path54"
         d="m 590.2685,458.76706 c 40.99468,23.38384 41.40987,61.64675 0.92701,85.45631 -40.48285,23.80956 -106.54176,24.15492 -147.53643,0.7706 -40.99945,-23.38671 -41.40939,-61.64627 -0.92701,-85.45584 40.48238,-23.80956 106.53698,-24.15778 147.53643,-0.77107 z m -139.15506,81.84298 c 36.82551,21.00556 96.16813,20.6956 132.53396,-0.69215 36.36536,-21.38824 35.99225,-55.76037 -0.83278,-76.76642 -36.83029,-21.00844 -96.16813,-20.69561 -132.53396,0.69215 -36.36535,21.38823 -35.99704,55.7575 0.83278,76.76642"
         style="fill:#eebf00;stroke-width:0.23713635"
         inkscape:connector-curvature="0" />
      <g
         id="g60"
         transform="matrix(0.47833416,0,0,0.47833416,401.28346,426.66031)"
         style="stroke-width:0.49575463">
        <path
           inkscape:connector-curvature="0"
           id="path56"
           d="m 411.769,57.312 c 95.027,54.204 95.989,142.894 2.139,198.091 C 320.057,310.6 166.939,311.4 71.913,257.196 -23.124,202.986 -24.087,114.297 69.764,59.1 163.613,3.903 316.731,3.102 411.769,57.312 Z M 88.591,247.388 c 85.703,48.886 223.806,48.163 308.439,-1.611 C 481.663,196.001 480.795,116.009 395.092,67.123 309.379,18.232 171.287,18.958 86.653,68.734 2.02,118.509 2.877,198.495 88.591,247.388"
           style="fill:#fece00;stroke-width:0.49575463" />
        <path
           inkscape:connector-curvature="0"
           id="path58"
           d="m 379.507,76.288 c 76.987,43.914 77.767,115.772 1.741,160.487 -76.025,44.713 -200.087,45.363 -277.074,1.447 C 27.177,194.302 26.408,122.449 102.433,77.735 178.458,33.021 302.509,32.367 379.507,76.288 Z"
           style="fill:#fece00;stroke-width:0.49575463" />
      </g>
    </g>
  </g>
</svg>
