<svg xmlns="http://www.w3.org/2000/svg" xmlns:xlink="http://www.w3.org/1999/xlink" width="16" height="16" viewBox="0 0 16 16">
  <defs>
    <clipPath id="clip-upload">
      <rect width="16" height="16"/>
    </clipPath>
  </defs>
  <g id="upload" clip-path="url(#clip-upload)">
    <g id="Group_2" data-name="Group 2" transform="translate(0.223 0.223)">
      <g id="Group_1" data-name="Group 1" transform="translate(1.777 1.777)">
        <path id="Path_1" data-name="Path 1" d="M7.916,20.334H4.53a.973.973,0,0,1-.708-.307L2.708,18.839a.194.194,0,0,0-.14-.061H.389a.389.389,0,0,1,0-.778H2.568a.973.973,0,0,1,.708.307L4.39,19.5a.194.194,0,0,0,.14.061H7.916a.194.194,0,0,0,.14-.061L9.17,18.307A.974.974,0,0,1,9.878,18h2.179a.389.389,0,0,1,0,.778H9.878a.194.194,0,0,0-.14.061L8.624,20.027A.974.974,0,0,1,7.916,20.334Z" transform="translate(0 -10.999)"/>
        <path id="Path_2" data-name="Path 2" d="M11.279,17.334H1.166A1.168,1.168,0,0,1,0,16.168v-3.89a.387.387,0,0,1,.018-.116L1.1,8.682A.88.88,0,0,1,1.956,8h.767a.389.389,0,1,1,0,.778H1.956a.1.1,0,0,0-.1.08.371.371,0,0,1-.01.04L.778,12.337v3.831a.389.389,0,0,0,.389.389H11.279a.389.389,0,0,0,.389-.389V12.337L10.6,8.9a.334.334,0,0,1-.01-.039.1.1,0,0,0-.1-.08H9.723a.389.389,0,1,1,0-.778h.767a.88.88,0,0,1,.855.682l1.083,3.481a.4.4,0,0,1,.018.116v3.89A1.168,1.168,0,0,1,11.279,17.334Z" transform="translate(0 -4.889)"/>
        <path id="Path_3" data-name="Path 3" d="M14.278,2.722A.388.388,0,0,1,14,2.608L12.333.939l-1.67,1.67a.389.389,0,1,1-.55-.55L12.058.114a.388.388,0,0,1,.55,0l1.945,1.945a.389.389,0,0,1-.275.664Z" transform="translate(-6.111 0)"/>
        <path id="Path_4" data-name="Path 4" d="M15.389,7A.389.389,0,0,1,15,6.612V.389a.389.389,0,0,1,.778,0V6.612A.389.389,0,0,1,15.389,7Z" transform="translate(-9.166 0)"/>
      </g>
    </g>
  </g>
</svg>
